…
Climate_table_cleaned <- climate_table[-c(1, 2),]

Climate_table_cleaned$Avg_Temp_January = as.numeric(as.character(Climate_table_cleaned$Avg_Temp_January))
Climate_table_cleaned$Avg_Temp_April = as.numeric(as.character(Climate_table_cleaned$Avg_Temp_April))
Climate_table_cleaned$Avg_Temp_October = as.numeric(as.character(Climate_table_cleaned$Avg_Temp_October))
Climate_table_cleaned$Precipitation_inches = as.numeric(as.character(Climate_table_cleaned$Precipitation_inches))
Climate_table_cleaned$Precipitation_days = as.numeric(as.character(Climate_table_cleaned$Precipitation_days)) # Here's our first table!
Climate_table_cleaned
```

    ## # A tibble: 100 x 9
    ##    City     Avg_Temp_January Avg_Temp_April Avg_Temp_July Avg_Temp_October
    ##    <chr>               <dbl>          <dbl> <chr>                    <dbl>
    ##  1 Albany,…             22.2           46.6 71.1                      49.3
    ##  2 Albuque…             35.7           55.6 78.5                      57.3
    ##  3 Anchora…             15.8           36.3 58.4                      34.1
    ##  4 Ashevil…             35.8           54.1 73.0                      55.2
    ##  5 Atlanta…             42.7           61.6 80.0                      62.8
    ##  6 Atlanti…             32.1           50.6 75.3                      55.1
    ##  7 Austin,…             50.2           68.3 84.2                      70.6
    ##  8 Baltimo…             32.3           53.2 76.5                      55.4
    ##  9 Baton R…             50.1           66.6 81.7                      68.1
    ## 10 Billing…             24.0           46.1 72.0                      48.1
    ## # ... with 90 more rows, and 4 more variables: Precipitation_inches <dbl>,
    ## #   Precipitation_days <dbl>, Snowfall <chr>, Observed_Days <chr>
…
# Here is our second major pipeline for scraping data off websites
Mood_table_cleaned <- Mood_URL %>%
  read_html() %>%
  html_node("table") %>% #This line acts as a css selector to locate the table in the web page
  html_table(fill = TRUE) %>%
  set_colnames(c("OverallRank","City","Total_Score","Emotional_WB_Rank","Income_WB_Rank", "Communal_WB_Rank")) %>%
  as_data_frame ## Converting to easy to use R data frame

Mood_table_cleaned
```

    ## # A tibble: 182 x 6
    ##    OverallRank City            Total_Score Emotional_WB_Ra… Income_WB_Rank
    ##          <int> <chr>                 <dbl>            <int>          <int>
    ##  1           1 Fremont, CA            79.9                3              6
    ##  2           2 Bismarck, ND           78.4                4              1
    ##  3           3 San Jose, CA           76.4                1              8
    ##  4           4 Pearl City, HI         75.2                2             57
    ##  5           5 Plano, TX              73.6                8             17
    ##  6           6 Fargo, ND              73.5               12              2
    ##  7           7 Sioux Falls, SD        72.0                7             48
    ##  8           8 Irvine, CA             71.2               13             33
    ##  9           9 Huntington Bea…        70.7               16             25
    ## 10          10 Grand Prairie,…        70.5               29             16
    ## # ... with 172 more rows, and 1 more variable: Communal_WB_Rank <int>
…
``` r
library(tidyr)
library(rvest)
library(magrittr)
library(dplyr)
library(readr)
library(tidyverse)

## Let's seperate the City columns of both tables into their respective cities and states.
Regional_Mood_table = separate(data = Mood_table_cleaned, col = City, sep = ",", into = c("City", "State"))
Regional_Mood_table
```

    ## # A tibble: 182 x 7
    ##    OverallRank City      State Total_Score Emotional_WB_Ra… Income_WB_Rank
    ##          <int> <chr>     <chr>       <dbl>            <int>          <int>
    ##  1           1 Fremont   " CA"        79.9                3              6
    ##  2           2 Bismarck  " ND"        78.4                4              1
    ##  3           3 San Jose  " CA"        76.4                1              8
    ##  4           4 Pearl Ci… " HI"        75.2                2             57
    ##  5           5 Plano     " TX"        73.6                8             17
    ##  6           6 Fargo     " ND"        73.5               12              2
    ##  7           7 Sioux Fa… " SD"        72.0                7             48
    ##  8           8 Irvine    " CA"        71.2               13             33
    ##  9           9 Huntingt… " CA"        70.7               16             25
    ## 10          10 Grand Pr… " TX"        70.5               29             16
    ## # ... with 172 more rows, and 1 more variable: Communal_WB_Rank <int>

``` r
Regional_Climate_table = separate(data = Climate_table_cleaned, col = City, sep = ",", into = c("City", "State"))
Regional_Climate_table 
```

    ## # A tibble: 100 x 10
    ##    City          State     Avg_Temp_January Avg_Temp_April Avg_Temp_July
    ##    <chr>         <chr>                <dbl>          <dbl> <chr>        
    ##  1 Albany        " N.Y."               22.2           46.6 71.1         
    ##  2 Albuquerque   " N.M."               35.7           55.6 78.5         
    ##  3 Anchorage     " Alaska"             15.8           36.3 58.4         
    ##  4 Asheville     " N.C."               35.8           54.1 73.0         
    ##  5 Atlanta       " Ga."                42.7           61.6 80.0         
    ##  6 Atlantic City " N.J."               32.1           50.6 75.3         
    ##  7 Austin        " Texas"              50.2           68.3 84.2         
    ##  8 Baltimore     " Md."                32.3           53.2 76.5         
    ##  9 Baton Rouge   " La."                50.1           66.6 81.7         
    ## 10 Billings      " Mont."              24.0           46.1 72.0         
    ## # ... with 90 more rows, and 5 more variables: Avg_Temp_October <dbl>,
    ## #   Precipitation_inches <dbl>, Precipitation_days <dbl>, Snowfall <chr>,
    ## #   Observed_Days <chr>

#### Grouping by State

Since, I pointed out that we will be doing analysis on a state-wide basis rather than city-wide, we group the two tables by their states. Then, summarize the data to take averages across every city to convert into an average single state metric.

``` r
# Group Climate table by state 
State_Climate_table <- Regional_Climate_table %>% group_by(State) %>%
  summarize(Avg_Temp_April = mean(Avg_Temp_April), Avg_Temp_January = mean(Avg_Temp_January), Avg_Precipitation_inches = mean(Precipitation_inches), Avg_Precipitation_days = mean(Precipitation_days))
State_Climate_table
```

    ## # A tibble: 51 x 5
    ##    State Avg_Temp_April Avg_Temp_January Avg_Precipitati… Avg_Precipitati…
    ##    <chr>          <dbl>            <dbl>            <dbl>            <dbl>
    ##  1 " Al…           63.9             46.4             58.4            115  
    ##  2 " Al…           36.3             10.6             28.2            148  
    ##  3 " Ar…           68.1             53.0             10.2             44.5
    ##  4 " Ar…           61.4             40.1             50.9            104  
    ##  5 " Ca…           60.3             53.5             15.0             45.6
    ##  6 " Co…           49.2             27.6             12.4             80.5
    ##  7 " Co…           48.9             27.8             45.2            124  
    ##  8 " D.…           56.1             34.9             39.4            113  
    ##  9 " De…           52.4             31.5             42.8            117  
    ## 10 " Fl…           71.3             61.4             51.9            120  
    ## # ... with 41 more rows

``` r
# Group Mood table by state
State_Mood_table <- Regional_Mood_table %>% group_by(State) %>%
  summarize(Emotional_WB_Rank = mean(Emotional_WB_Rank),Communal_WB_Rank = mean(Communal_WB_Rank), Income_WB_Rank = mean(Income_WB_Rank), 
            Overall_WB_Rank = (Emotional_WB_Rank+Communal_WB_Rank+Income_WB_Rank)/3)
State_Mood_table
```

    ## # A tibble: 51 x 5
    ##    State Emotional_WB_Rank Communal_WB_Rank Income_WB_Rank Overall_WB_Rank
    ##    <chr>             <dbl>            <dbl>          <dbl>           <dbl>
    ##  1 " AK"              72.5            112             29.5            71.3
    ##  2 " AL"             167               88.0          152             136  
    ##  3 " AR"             178               91.5          132             134  
    ##  4 " AZ"              75.6             80.1           73.7            76.4
    ##  5 " CA"              53.6             73.3           76.9            67.9
    ##  6 " CO"              56.0             83.3           69.3            69.6
    ##  7 " CT"             129              148            156             145  
    ##  8 " DC"              15.0            171             31.0            72.3
    ##  9 " DE"             129              179            142             150  
    ## 10 " FL"              84.5            119             94.0            99.2
    ## # ... with 41 more rows
…
I notice that even though we have state columns for both data sets, one of them uses the full states name while the other uses abbreviations. So, I manually create a column to standardize both sets to have the State\_std abbreviation. Then we unite the data.

``` r
#Next we need to standardize the state column abbreviations, so that we can join the tables for data analysis.

State_Mood_table$State_std = c("AK","AL","AR","AZ","CA","CO","CT","DC","DE","FL",
                               "GA","HI","IA","IL","ID","IN","KS","KY","LA","MA",
                              "MD","ME","MI","MN","MO","MS","MT","NC","ND","NE",
                              "NH","NJ","NM","NV","NY","OH","OK","OR","PA","RI",
                              "SC","SD","TN", "TX","UT","VA","VT","WA","WI","WV",
                              "WY")
State_Mood_table
```

    ## # A tibble: 51 x 6
    ##    State Emotional_WB_Rank Communal_WB_Rank Income_WB_Rank Overall_WB_Rank
    ##    <chr>             <dbl>            <dbl>          <dbl>           <dbl>
    ##  1 " AK"              72.5            112             29.5            71.3
    ##  2 " AL"             167               88.0          152             136  
    ##  3 " AR"             178               91.5          132             134  
    ##  4 " AZ"              75.6             80.1           73.7            76.4
    ##  5 " CA"              53.6             73.3           76.9            67.9
    ##  6 " CO"              56.0             83.3           69.3            69.6
    ##  7 " CT"             129              148            156             145  
    ##  8 " DC"              15.0            171             31.0            72.3
    ##  9 " DE"             129              179            142             150  
    ## 10 " FL"              84.5            119             94.0            99.2
    ## # ... with 41 more rows, and 1 more variable: State_std <chr>

``` r
State_Climate_table$State_std = c("AL","AK","AZ","AR","CA","CO","CT","DC","DE","FL",
                               "GA","HI","IA","ID","IL","IN","KS","KY","LA","ME","MA",
                              "MD","MI","MN","MS","MO","MT","NC","ND","NH",
                              "NJ","NM", "NY", "NE","NV","OH","OK","OR","PA","RI",
                              "SC","SD","TN", "TX","UT","VA","VT","WV","WA","WI",
                              "WY")
State_Climate_table
```

    ## # A tibble: 51 x 6
    ##    State Avg_Temp_April Avg_Temp_January Avg_Precipitati… Avg_Precipitati…
    ##    <chr>          <dbl>            <dbl>            <dbl>            <dbl>
    ##  1 " Al…           63.9             46.4             58.4            115  
    ##  2 " Al…           36.3             10.6             28.2            148  
    ##  3 " Ar…           68.1             53.0             10.2             44.5
    ##  4 " Ar…           61.4             40.1             50.9            104  
    ##  5 " Ca…           60.3             53.5             15.0             45.6
    ##  6 " Co…           49.2             27.6             12.4             80.5
    ##  7 " Co…           48.9             27.8             45.2            124  
    ##  8 " D.…           56.1             34.9             39.4            113  
    ##  9 " De…           52.4             31.5             42.8            117  
    ## 10 " Fl…           71.3             61.4             51.9            120  
    ## # ... with 41 more rows, and 1 more variable: State_std <chr>
…
